Model
…
Elizabeth Guo

11/28/2019

justicedem <- read_xlsx("Final_Project/justicesdata.xlsx")
justicevote <- read_csv("Final_Project/justicevote.csv",
                        col_types = cols(
                            justice = col_double(),
                            term = col_double(),
                            direction = col_double()
                        ))

justicedem %>% select(spaethid)

## # A tibble: 176 x 1
##    spaethid
##       <dbl>
##  1        1
##  2        2
##  3        3
##  4      888
##  5        4
##  6        5
##  7        6
##  8        7
##  9        7
## 10        8
## #  with 166 more rows
…
